{
    "variables":[
        ["foo", "123"],
        ["bar", "456"]
    ],
    "steps":[
        { "class": "Get",
            "url": "{{url}}",
            "params":[],
            "extractors":[]
        },
        { "class": "Post",
            "url": "{{url}}",
            "params":[],
            "extractors":[]
        }
    ]
}
